<?xml version="1.0" encoding="UTF-8" standalone="no"?>
<!-- Created with Inkscape (http://www.inkscape.org/) -->

<svg
   xmlns:dc="http://purl.org/dc/elements/1.1/"
   xmlns:cc="http://creativecommons.org/ns#"
   xmlns:rdf="http://www.w3.org/1999/02/22-rdf-syntax-ns#"
   xmlns:svg="http://www.w3.org/2000/svg"
   xmlns="http://www.w3.org/2000/svg"
   xmlns:sodipodi="http://sodipodi.sourceforge.net/DTD/sodipodi-0.dtd"
   xmlns:inkscape="http://www.inkscape.org/namespaces/inkscape"
   width="48"
   height="48"
   viewBox="0 0 45 45.000001"
   id="svg4958"
   version="1.1"
   inkscape:version="0.92.1 r15371"
   sodipodi:docname="mobilisateur.svg"
   inkscape:export-filename="D:\0-0-Agata\graphik\pictogrammes\Pictos-fonctions\picto-loupe.png"
   inkscape:export-xdpi="300"
   inkscape:export-ydpi="300">
  <defs
     id="defs4960" />
  <sodipodi:namedview
     id="base"
     pagecolor="#ffffff"
     bordercolor="#666666"
     borderopacity="1.0"
     inkscape:pageopacity="0.0"
     inkscape:pageshadow="2"
     inkscape:zoom="7.9195959"
     inkscape:cx="38.409569"
     inkscape:cy="21.870997"
     inkscape:document-units="px"
     inkscape:current-layer="g21531"
     showgrid="true"
     units="px"
     inkscape:window-width="1366"
     inkscape:window-height="705"
     inkscape:window-x="-8"
     inkscape:window-y="-8"
     inkscape:window-maximized="1">
    <inkscape:grid
       type="xygrid"
       id="grid6185"
       originx="0"
       originy="0"
       spacingx="1"
       spacingy="1" />
  </sodipodi:namedview>
  <metadata
     id="metadata4963">
    <rdf:RDF>
      <cc:Work
         rdf:about="">
        <dc:format>image/svg+xml</dc:format>
        <dc:type
           rdf:resource="http://purl.org/dc/dcmitype/StillImage" />
        <dc:title></dc:title>
      </cc:Work>
    </rdf:RDF>
  </metadata>
  <g
     inkscape:label="Calque 1"
     inkscape:groupmode="layer"
     id="layer1"
     transform="translate(0,-1007.3622)">
    <rect
       style="opacity:1;fill:none;fill-opacity:1;stroke:none;stroke-width:1.95103896;stroke-linecap:round;stroke-linejoin:round;stroke-miterlimit:4;stroke-dasharray:none;stroke-dashoffset:0;stroke-opacity:1"
       id="rect5524-3"
       width="45"
       height="45"
       x="-47.501274"
       y="1008.649" />
    <path
       style="display:inline;fill:none;fill-rule:evenodd;stroke:none;stroke-width:0.60000008px;stroke-linecap:butt;stroke-linejoin:miter;stroke-opacity:1"
       d="M -20.20591,1022.9818 H 9.5578782 v 29.7638 H -20.20591 Z"
       id="path5102-0"
       inkscape:connector-curvature="0"
       inkscape:export-filename="D:\0-0-Opacite\graphik\pictogrammes\Déf\Sénat.png"
       inkscape:export-xdpi="300"
       inkscape:export-ydpi="300" />
    <g
       style="display:inline"
       id="g21531"
       transform="matrix(0.60000001,0,0,0.60000001,-693.46938,1500.3311)">
      <g
         id="g26686"
         transform="translate(-2.7237007,-3.0531745)">
        <rect
           inkscape:export-ydpi="300"
           inkscape:export-xdpi="300"
           inkscape:export-filename="D:\0-0-Agata\graphik\pictogrammes\Déf-1\visu.png"
           y="-818.56165"
           x="1158.506"
           height="75"
           width="75"
           id="rect5524"
           style="opacity:1;fill:none;fill-opacity:1;stroke:none;stroke-width:3.25173163;stroke-linecap:round;stroke-linejoin:round;stroke-miterlimit:4;stroke-dasharray:none;stroke-dashoffset:0;stroke-opacity:1" />
        <rect
           inkscape:export-ydpi="300"
           inkscape:export-xdpi="300"
           inkscape:export-filename="D:\0-0-Agata\graphik\pictogrammes\Déf-1\visu.png"
           y="-818.56165"
           x="1158.506"
           height="75"
           width="75"
           id="rect5524-31"
           style="opacity:1;fill:none;fill-opacity:1;stroke:none;stroke-width:3.25173163;stroke-linecap:round;stroke-linejoin:round;stroke-miterlimit:4;stroke-dasharray:none;stroke-dashoffset:0;stroke-opacity:1" />
        <g
           id="g26618"
           style="display:inline"
           transform="matrix(0.95833334,0,0,0.95833334,415.79613,39.83937)">
          <circle
             style="display:inline;opacity:1;fill:#fafafa;fill-opacity:1;stroke:#0f3dfa;stroke-width:3.26609707;stroke-linecap:round;stroke-miterlimit:4;stroke-dasharray:none;stroke-dashoffset:0;stroke-opacity:1"
             id="path5962-9-0-9-9-3-4-3-8-9-0-6-0-8-4"
             cx="814.13196"
             cy="-856.59235"
             r="35.866951" />
          <g
             id="g26604"
             transform="translate(1.875)">
            <g
               style="display:inline;fill:#505050;fill-opacity:1"
               id="g4436-1-8-1"
               transform="matrix(0.82566812,0,0,0.82566812,779.47949,-993.24985)">
              <path
                 sodipodi:nodetypes="cccccccsc"
                 inkscape:connector-curvature="0"
                 id="path4432-2-9-2"
                 d="m 35.477352,157.36677 c -7.175176,-0.0434 -10.738781,-4.94195 -10.738781,-4.94195 -4.381065,4.0606 -6.082148,8.24599 -7.022036,14.11061 l 0.01028,31.95343 35.457695,-0.0215 0.0085,-32.0205 c -0.993014,-6.27358 -2.95319,-9.86303 -7.458547,-14.27254 0,0 -2.913605,5.23689 -10.257129,5.19245 z"
                 style="fill:#505050;fill-opacity:1;fill-rule:evenodd;stroke:none;stroke-width:0.35433072;stroke-linecap:butt;stroke-linejoin:miter;stroke-miterlimit:4;stroke-dasharray:none;stroke-opacity:1" />
              <circle
                 r="11"
                 cy="141.36221"
                 cx="35.454773"
                 id="path4434-47-0-6"
                 style="opacity:1;fill:#505050;fill-opacity:1;stroke:none;stroke-width:0.35433072;stroke-miterlimit:4;stroke-dasharray:none;stroke-dashoffset:0;stroke-opacity:1" />
            </g>
            <g
               transform="matrix(0.55555556,0,0,0.55555556,372.79208,-387.69368)"
               id="g26592">
              <path
                 style="fill:#ff73b8;fill-opacity:1;fill-rule:evenodd;stroke:none;stroke-width:0.28665376;stroke-linecap:butt;stroke-linejoin:miter;stroke-miterlimit:4;stroke-dasharray:none;stroke-opacity:1"
                 d="m 826.55402,-878.50019 -0.53597,0.6432 -0.83081,0.85759 -1.0184,1.33999 -1.1524,1.44718 -1.50078,1.4472 -1.608,1.5812 -1.60798,1.33999 -1.79559,1.42039 -1.60799,0.9112 -1.71518,0.9112 -2.278,0.88438 -2.06359,0.5092 -2.06358,0.3484 -2.14398,0.13401 h -2.33158 -1.4204 -3.10878 l -2.35838,0.0267 -2.3316,0.0536 -1.12558,0.26801 -0.85759,0.42879 -1.206,0.7236 -0.75038,0.91118 -0.536,1.0184 -0.3216,0.99158 -0.18762,0.53601 -0.0269,5.27956 0.16091,1.09879 0.91119,1.71519 0.91118,0.99161 0.8844,0.7236 1.07199,0.48238 0.93799,0.24122 6.96796,0.0267 5.65476,0.0267 2.09038,0.21433 2.3048,0.34841 2.81398,0.83078 2.51918,1.072 2.49238,1.52759 1.072,0.75039 1.60799,1.47399 1.82238,1.8492 1.7956,2.22439 1.01838,1.31319 0.6968,1.42037 1.1256,1.20599 0.96478,0.7236 1.2596,0.56281 0.64319,0.13401 1.12561,-0.10736 0.85759,-0.48239 1.20598,-0.93798 1.072,-1.3132 1.0184,-1.63479 0.7236,-1.5276 0.93797,-2.62638 0.45561,-1.44717 0.5092,-2.4924 0.24119,-1.2328 0.50921,-3.51076 0.13401,-1.92958 0.10721,-2.546 -0.13401,-6.02996 -0.24121,-2.43878 -0.8844,-5.27958 -0.7236,-2.73357 -0.45559,-1.44719 -1.50077,-3.13557 -1.09882,-1.7688 -1.42037,-1.4204 -1.07201,-0.61639 -0.77719,-0.18761 -0.8576,-0.0267 -1.39358,0.48241 -1.23278,1.0452 z"
                 id="path4728-7-4-8"
                 inkscape:connector-curvature="0"
                 sodipodi:nodetypes="cccccccccccccccccccccccccccccccccccccccccccccccccccccccccccccccccccccccccccccc" />
              <path
                 style="fill:#c8c8c8;fill-opacity:1;fill-rule:evenodd;stroke:none;stroke-width:0.28665376;stroke-linecap:butt;stroke-linejoin:miter;stroke-miterlimit:4;stroke-dasharray:none;stroke-opacity:1"
                 d="m 829.87721,-876.4366 -0.80401,0.91118 -0.99158,1.63479 -0.7772,2.06359 -0.93799,2.92119 -0.536,2.54597 -0.29481,1.71521 -0.21432,1.87599 1.07199,-0.0267 1.4204,0.0536 1.50079,0.402 1.2864,0.77717 0.93799,0.91121 0.99159,1.6884 0.34838,1.66157 -0.1072,1.55438 -0.53599,1.52761 -0.83079,1.09879 -1.09879,0.99159 -0.99161,0.53601 -1.23278,0.40198 -1.63479,0.0536 -1.1256,0.0267 0.21433,1.90278 0.88439,4.44878 0.61642,2.00997 1.07198,2.68 0.8576,1.63479 0.5896,0.69678 0.40198,0.2948 0.61642,-0.53599 1.15237,-2.06359 1.4204,-3.34998 0.66998,-2.84078 0.5628,-3.45719 0.1609,-2.14397 0.24122,-5.68158 0.0267,-1.90279 -0.45559,-5.01154 -0.66998,-3.6984 -0.50922,-1.68838 -0.9916,-2.97478 -0.88439,-1.84919 -0.9112,-1.36679 z"
                 id="path4730-5-1-7"
                 inkscape:connector-curvature="0" />
              <path
                 style="fill:#ff73b8;fill-opacity:1;fill-rule:evenodd;stroke:none;stroke-width:0.28665376;stroke-linecap:butt;stroke-linejoin:miter;stroke-miterlimit:4;stroke-dasharray:none;stroke-opacity:1"
                 d="m 794.14843,-847.23445 h 9.36148 l -0.43587,1.36441 -0.22739,1.6866 0.038,1.97083 0.4927,1.53499 1.08018,1.1749 0.83381,0.83382 0.66327,1.04226 0.3411,0.75801 0.15164,0.96649 -0.28426,1.02331 -0.53061,0.68222 -0.7959,0.45479 -0.75802,0.18961 -4.43437,0.0199 -0.92859,-0.30321 -0.758,-0.54956 -0.51166,-0.64431 -0.96645,-3.46789 -1.06122,-3.99854 z"
                 id="path4732-8-5-0"
                 inkscape:connector-curvature="0" />
              <path
                 style="fill:#c8c8c8;fill-opacity:1;fill-rule:evenodd;stroke:none;stroke-width:0.28665376;stroke-linecap:butt;stroke-linejoin:miter;stroke-miterlimit:4;stroke-dasharray:none;stroke-opacity:1"
                 d="m 803.49096,-860.84079 -6.76527,-0.038 -0.79591,0.18959 -0.94752,0.56851 -0.68222,1.02331 -0.3032,0.90962 -0.13272,1.25073 9.74048,0.038 z"
                 id="path4734-4-3-4"
                 inkscape:connector-curvature="0" />
              <path
                 style="fill:#c8c8c8;fill-opacity:1;fill-rule:evenodd;stroke:none;stroke-width:0.28665376;stroke-linecap:butt;stroke-linejoin:miter;stroke-miterlimit:4;stroke-dasharray:none;stroke-opacity:1"
                 d="m 807.50843,-861.18191 0.11365,8.37607 1.78134,0.18959 2.88046,0.64431 1.93292,0.68222 2.16035,0.79593 1.93292,1.09911 2.19825,1.36443 1.25072,1.0991 -0.26529,-2.31193 -0.34112,-3.86587 -0.0757,-3.82796 0.26529,-3.79008 0.26531,-4.43437 0.22741,-1.59182 -0.038,-1.02333 -1.78135,1.59182 -2.65302,1.74343 -2.08456,1.02332 -1.93292,0.87172 -2.72885,0.75801 -2.12245,0.56852 z"
                 id="path4736-5-5-38"
                 inkscape:connector-curvature="0" />
              <path
                 style="fill:#ff73b8;fill-opacity:1;fill-rule:evenodd;stroke:none;stroke-width:0.28665376;stroke-linecap:butt;stroke-linejoin:miter;stroke-miterlimit:4;stroke-dasharray:none;stroke-opacity:1"
                 d="m 809.47926,-858.83206 2.00874,-0.038 3.41105,-0.7201 1.89505,-0.87173 1.55394,-1.09911 0.9854,-1.09911 -0.18939,3.86586 -1.62973,0.87173 -3.48686,0.60641 -2.99415,0.30318 -1.44022,0.076 z"
                 id="path4738-9-5-0"
                 inkscape:connector-curvature="0" />
            </g>
          </g>
        </g>
      </g>
    </g>
  </g>
</svg>
