<?xml version="1.0" encoding="UTF-8" standalone="no"?>
<!-- Created with Inkscape (http://www.inkscape.org/) -->

<svg
   xmlns:dc="http://purl.org/dc/elements/1.1/"
   xmlns:cc="http://creativecommons.org/ns#"
   xmlns:rdf="http://www.w3.org/1999/02/22-rdf-syntax-ns#"
   xmlns:svg="http://www.w3.org/2000/svg"
   xmlns="http://www.w3.org/2000/svg"
   xmlns:sodipodi="http://sodipodi.sourceforge.net/DTD/sodipodi-0.dtd"
   xmlns:inkscape="http://www.inkscape.org/namespaces/inkscape"
   width="13.546667mm"
   height="13.546667mm"
   viewBox="0 0 48.000002 48.000001"
   id="svg6798"
   version="1.1"
   inkscape:version="0.91 r13725"
   style="enable-background:new"
   sodipodi:docname="Noeud_Organisation.svg">
  <defs
     id="defs6800">
    <filter
       inkscape:collect="always"
       style="color-interpolation-filters:sRGB"
       id="filter7358">
      <feBlend
         inkscape:collect="always"
         mode="multiply"
         in2="BackgroundImage"
         id="feBlend7360" />
    </filter>
  </defs>
  <sodipodi:namedview
     id="base"
     pagecolor="#ffffff"
     bordercolor="#666666"
     borderopacity="1.0"
     inkscape:pageopacity="0.0"
     inkscape:pageshadow="2"
     inkscape:zoom="5.6"
     inkscape:cx="8.4789269"
     inkscape:cy="39.722135"
     inkscape:document-units="px"
     inkscape:current-layer="layer1"
     showgrid="false"
     fit-margin-top="0"
     fit-margin-left="0"
     fit-margin-right="0"
     fit-margin-bottom="0"
     inkscape:window-width="1301"
     inkscape:window-height="744"
     inkscape:window-x="65"
     inkscape:window-y="24"
     inkscape:window-maximized="1" />
  <metadata
     id="metadata6803">
    <rdf:RDF>
      <cc:Work
         rdf:about="">
        <dc:format>image/svg+xml</dc:format>
        <dc:type
           rdf:resource="http://purl.org/dc/dcmitype/StillImage" />
        <dc:title></dc:title>
      </cc:Work>
    </rdf:RDF>
  </metadata>
  <g
     inkscape:label="Calque 1"
     inkscape:groupmode="layer"
     id="layer1"
     style="filter:url(#filter7358)"
     transform="translate(-217.13481,-525.80292)">
    <g
       id="g7362">
      <g
         transform="matrix(0.83470994,0,0,0.83463101,-1243.9596,577.54435)"
         id="g8054"
         style="display:inline">
        <circle
           style="display:inline;opacity:1;fill:#fafafa;fill-opacity:1;stroke:#0f3dfa;stroke-width:2.4000001;stroke-linecap:round;stroke-miterlimit:4;stroke-dasharray:none;stroke-dashoffset:0;stroke-opacity:1"
           id="path5962-9-0-9-9-3-4-3-8-9-0-6-0-7-5"
           cx="1779.1742"
           cy="-33.237961"
           r="26.355827" />
        <path
           inkscape:connector-curvature="0"
           d="m 1799.5743,-33.237959 a 20.476562,20.476562 0 0 1 -19.8953,20.407368 l 0,1.466895 a 0.61812552,0.61812552 0 0 1 -0.9688,0.516642 l -5.2817,-3.450432 a 0.61812552,0.61812552 0 0 1 0,-1.033284 l 5.2817,-3.450432 a 0.61812552,0.61812552 0 0 1 0.9549,0.516641 l 0,1.443834 a 16.421843,16.421843 0 0 0 7.1268,-30.957021 0.33674003,0.33674003 0 0 1 -0.032,-0.581223 l 2.9937,-1.946633 a 0.53509375,0.53509375 0 0 1 0.5859,0 20.296659,20.296659 0 0 1 9.235,17.067645 z m -28.0233,14.539788 a 16.421843,16.421843 0 0 1 7.113,-30.957016 l 0,1.443829 a 0.61812552,0.61812552 0 0 0 0.9688,0.516642 l 5.3001,-3.450433 a 0.61812552,0.61812552 0 0 0 0,-1.033284 l -5.3001,-3.450431 a 0.61812552,0.61812552 0 0 0 -0.9688,0.516642 l 0,1.466894 a 20.407368,20.407368 0 0 0 -10.6602,37.475014 0.53509375,0.53509375 0 0 0 0.5858,0 l 2.9937,-1.951244 a 0.33674003,0.33674003 0 0 0 -0.032,-0.576613 z m 3.6395,-6.697897 a 0.53509375,0.53509375 0 0 1 0.1477,-0.461287 0.54431949,0.54431949 0 0 1 0.7703,0 l 3.229,3.229013 a 2.0942462,2.0942462 0 0 0 2.9661,0 l 0.8673,-0.922575 2.2279,-2.214181 a 0.66886718,0.66886718 0 0 0 0,-0.922576 l -0.1107,-0.110708 a 1.1808965,1.1808965 0 0 0 -0.9686,-0.318287 2.8968868,2.8968868 0 1 1 2.5831,-2.569375 1.1532192,1.1532192 0 0 0 0.3183,0.950253 l 0.1107,0.110709 a 0.66886718,0.66886718 0 0 0 0.9226,0 l 2.265,-2.26031 0.8717,-0.871831 a 2.0988591,2.0988591 0 0 0 0,-2.966083 l -3.229,-3.229014 -2.6569,-2.666242 -3.229,-3.229015 a 2.0942462,2.0942462 0 0 0 -2.9661,0 l -3.229,3.229015 a 0.54431949,0.54431949 0 0 1 -0.7704,0 0.53509375,0.53509375 0 0 1 -0.12,-0.461288 2.9014997,2.9014997 0 1 0 -2.2418,2.241858 0.53970662,0.53970662 0 0 1 0.489,0.147612 l 0,0 a 0.54431949,0.54431949 0 0 1 0,0.770353 l -3.229,3.229013 a 2.0988591,2.0988591 0 0 0 0,2.966078 l 3.229,3.229014 a 0.54431949,0.54431949 0 0 1 0,0.770354 0.53970662,0.53970662 0 0 1 -0.489,0.147611 2.8968868,2.8968868 0 1 0 2.2418,2.181889 z"
           id="path7449"
           style="fill:#505078;fill-opacity:1;stroke:none;stroke-width:0.46128771" />
      </g>
      <rect
         y="525.80292"
         x="217.13481"
         height="48"
         width="48"
         id="rect7356"
         style="opacity:1;fill:none;fill-opacity:1;fill-rule:nonzero;stroke:none;stroke-width:4;stroke-linecap:butt;stroke-linejoin:round;stroke-miterlimit:4;stroke-dasharray:none;stroke-dashoffset:0;stroke-opacity:1" />
    </g>
  </g>
</svg>
