<?xml version="1.0" encoding="UTF-8" standalone="no"?>
<!-- Created with Inkscape (http://www.inkscape.org/) -->

<svg
   xmlns:dc="http://purl.org/dc/elements/1.1/"
   xmlns:cc="http://creativecommons.org/ns#"
   xmlns:rdf="http://www.w3.org/1999/02/22-rdf-syntax-ns#"
   xmlns:svg="http://www.w3.org/2000/svg"
   xmlns="http://www.w3.org/2000/svg"
   xmlns:sodipodi="http://sodipodi.sourceforge.net/DTD/sodipodi-0.dtd"
   xmlns:inkscape="http://www.inkscape.org/namespaces/inkscape"
   width="48"
   height="48"
   viewBox="0 0 45 45.000001"
   id="svg4958"
   version="1.1"
   inkscape:version="0.92.1 r15371"
   sodipodi:docname="gestionnaire.svg"
   inkscape:export-filename="D:\0-0-Agata\graphik\pictogrammes\Pictos-fonctions\picto-loupe.png"
   inkscape:export-xdpi="300"
   inkscape:export-ydpi="300">
  <defs
     id="defs4960" />
  <sodipodi:namedview
     id="base"
     pagecolor="#ffffff"
     bordercolor="#666666"
     borderopacity="1.0"
     inkscape:pageopacity="0.0"
     inkscape:pageshadow="2"
     inkscape:zoom="7.9195959"
     inkscape:cx="38.409569"
     inkscape:cy="22.261615"
     inkscape:document-units="px"
     inkscape:current-layer="g21531"
     showgrid="true"
     units="px"
     inkscape:window-width="1366"
     inkscape:window-height="705"
     inkscape:window-x="-8"
     inkscape:window-y="-8"
     inkscape:window-maximized="1">
    <inkscape:grid
       type="xygrid"
       id="grid6185"
       originx="0"
       originy="0"
       spacingx="1"
       spacingy="1" />
  </sodipodi:namedview>
  <metadata
     id="metadata4963">
    <rdf:RDF>
      <cc:Work
         rdf:about="">
        <dc:format>image/svg+xml</dc:format>
        <dc:type
           rdf:resource="http://purl.org/dc/dcmitype/StillImage" />
        <dc:title></dc:title>
      </cc:Work>
    </rdf:RDF>
  </metadata>
  <g
     inkscape:label="Calque 1"
     inkscape:groupmode="layer"
     id="layer1"
     transform="translate(0,-1007.3622)">
    <rect
       style="opacity:1;fill:none;fill-opacity:1;stroke:none;stroke-width:1.95103896;stroke-linecap:round;stroke-linejoin:round;stroke-miterlimit:4;stroke-dasharray:none;stroke-dashoffset:0;stroke-opacity:1"
       id="rect5524-3"
       width="45"
       height="45"
       x="-47.501274"
       y="1008.649" />
    <path
       style="display:inline;fill:none;fill-rule:evenodd;stroke:none;stroke-width:0.60000008px;stroke-linecap:butt;stroke-linejoin:miter;stroke-opacity:1"
       d="M -20.20591,1022.9818 H 9.5578782 v 29.7638 H -20.20591 Z"
       id="path5102-0"
       inkscape:connector-curvature="0"
       inkscape:export-filename="D:\0-0-Opacite\graphik\pictogrammes\Déf\Sénat.png"
       inkscape:export-xdpi="300"
       inkscape:export-ydpi="300" />
    <g
       style="display:inline"
       id="g21531"
       transform="matrix(0.60000001,0,0,0.60000001,-693.46938,1500.3311)">
      <g
         id="g26106"
         transform="translate(1.5625542,-1.5623909)">
        <rect
           inkscape:export-ydpi="300"
           inkscape:export-xdpi="300"
           inkscape:export-filename="D:\0-0-Agata\graphik\pictogrammes\Déf-1\visu.png"
           y="-820.05243"
           x="1154.2197"
           height="75"
           width="75"
           id="rect5524"
           style="opacity:1;fill:none;fill-opacity:1;stroke:none;stroke-width:3.25173163;stroke-linecap:round;stroke-linejoin:round;stroke-miterlimit:4;stroke-dasharray:none;stroke-dashoffset:0;stroke-opacity:1" />
        <rect
           inkscape:export-ydpi="300"
           inkscape:export-xdpi="300"
           inkscape:export-filename="D:\0-0-Agata\graphik\pictogrammes\Déf-1\visu.png"
           y="-820.05243"
           x="1154.2197"
           height="75"
           width="75"
           id="rect5524-31"
           style="opacity:1;fill:none;fill-opacity:1;stroke:none;stroke-width:3.25173163;stroke-linecap:round;stroke-linejoin:round;stroke-miterlimit:4;stroke-dasharray:none;stroke-dashoffset:0;stroke-opacity:1" />
        <g
           transform="matrix(0.95833334,0,0,0.95833334,50.486557,-33.526403)"
           id="g26073">
          <circle
             r="35.866951"
             cy="-781.59235"
             cx="1190.8521"
             id="path5962-9-0-9-9-3-4-3-8-9-0-6-0-8-43"
             style="display:inline;opacity:1;fill:#fafafa;fill-opacity:1;stroke:#0f3dfa;stroke-width:3.26609707;stroke-linecap:round;stroke-miterlimit:4;stroke-dasharray:none;stroke-dashoffset:0;stroke-opacity:1" />
          <g
             transform="matrix(0.69494349,0,0,0.69494349,649.61051,-283.23601)"
             id="g16512">
            <path
               inkscape:connector-curvature="0"
               class="cls-1"
               d="m 777.03294,-724.21435 c -0.0656,0.70312 -0.14063,1.40625 -0.20625,2.1 h -0.075 c -1.11563,-3.75 -2.09063,-7.6125 -2.8125,-11.55938 0,-0.0656 0,-0.15937 -0.0562,-0.225 l -0.35625,0.13125 v 0 h -0.27188 c -1.6875,0.53438 -3.375,1.0875 -5.05312,1.62188 -1.67813,0.53437 -3.15938,1.0125 -4.75313,1.50937 -0.98203,0.3401 -1.74408,1.12651 -2.05312,2.11875 -0.38484,1.1036 -0.67035,2.23936 -0.85313,3.39375 -0.34095,1.97214 -0.50722,3.97051 -0.49687,5.97188 v 8.82187 c 0.013,1.78954 0.7786,3.49097 2.10937,4.6875 l 0.5625,0.50625 h 32.42813 l 0.53437,-0.50625 c 1.24206,-1.1969 1.93994,-2.85012 1.93125,-4.575 v -6.19687 c -0.0937,-1.50938 -0.14062,-5.25938 -0.23437,-6.76875 -0.10868,-1.59168 -0.40446,-3.16502 -0.88125,-4.6875 -0.25539,-1.30077 -1.17854,-2.37006 -2.42813,-2.8125 -1.74375,-0.54375 -3.46875,-1.13438 -5.19375,-1.6875 l -4.59375,-1.39688 h -0.10312 c -0.24375,-0.0656 -0.32813,-0.0563 -0.375,0.16875 -0.0394,0.0888 -0.0617,0.1842 -0.0656,0.28125 -0.73125,3.58125 -1.6125,7.10625 -2.60625,10.59375 -0.0656,0.23438 -0.14063,0.46875 -0.24375,0.77813 0,-0.14063 0,-0.17813 -0.0562,-0.20625 -0.225,-2.15625 -0.4125,-4.30313 -0.66563,-6.44063 -0.0902,-0.55841 -0.0186,-1.13097 0.20625,-1.65 0.12065,-0.2649 0.224,-0.53734 0.30938,-0.81562 0.15937,-0.5625 -0.13125,-1.44375 -0.50625,-1.45313 h -2.69063 c -0.10098,0.0204 -0.18913,0.0814 -0.24375,0.16875 -0.28305,0.40541 -0.34959,0.92374 -0.17812,1.3875 0.1125,0.3375 0.23437,0.68438 0.36562,1.00313 0.13783,0.33858 0.17367,0.71006 0.10313,1.06875 -0.15938,1.54687 -0.375,3.1125 -0.49688,4.66875 z"
               id="path15888"
               style="stroke-width:0.9375"
               sodipodi:nodetypes="cccccccccccccccccccccccccccccccccccccccccc" />
            <path
               inkscape:connector-curvature="0"
               class="cls-1"
               d="m 753.82029,-705.16435 -3.87187,-31.17188 c -0.005,-6.44772 5.21479,-11.68027 11.6625,-11.69062 h 4.85625 c -0.56849,4.13402 0.97351,8.2777 4.10625,11.03437 l -1.3125,0.4125 -3.0375,0.9375 c -1.3125,0.43125 -2.625,0.84375 -4.0125,1.275 -2.11339,0.7177 -3.77293,2.37724 -4.49063,4.49063 -0.46529,1.30583 -0.8074,2.65232 -1.02187,4.02187 -0.3875,2.20045 -0.57576,4.43136 -0.5625,6.66563 v 8.85937 c 5.1e-4,1.83364 0.49259,3.63362 1.425,5.2125 h -3.75 z m 33.24375,-31.875 2.9625,0.9375 1.92188,0.64687 3.27187,1.06875 c 2.48424,0.81423 4.37305,2.85188 4.99688,5.39063 0.55625,1.80093 0.9023,3.66016 1.03125,5.54062 0.0562,0.83438 0.0937,2.19375 0.13125,3.5625 0.0375,1.36875 0.0656,2.53125 0.10312,3.2625 v 6.39375 c -10e-4,1.78642 -0.46986,3.54142 -1.35937,5.09063 h 3.68437 l 3.9,-31.17188 c 0.0104,-6.46021 -5.22103,-11.7042 -11.68125,-11.70937 h -4.82812 c 0.56025,4.1333 -0.99295,8.27164 -4.13438,11.01562 z"
               id="path15888-7"
               style="fill:#505050;fill-opacity:1;stroke-width:0.9375"
               sodipodi:nodetypes="ccccccccccccccccccccccccccccccc" />
            <path
               inkscape:connector-curvature="0"
               class="cls-1"
               d="m 775.85156,-738.57686 c 0.37367,0.1486 0.75948,0.26466 1.15312,0.34687 0.59732,0.13135 1.20716,0.19736 1.81875,0.19688 4.73239,0 8.56875,-3.83636 8.56875,-8.56875 0.003,-0.56997 -0.0533,-1.13871 -0.16875,-1.69688 -1.86703,-9.13793 -14.92359,-9.13793 -16.79062,0 -0.11545,0.55817 -0.17201,1.12691 -0.16875,1.69688 0.003,3.57518 2.23284,6.77005 5.5875,8.00625 z"
               id="path15888-6"
               style="display:inline;fill:#f88b3f;fill-opacity:1;stroke-width:0.9375"
               sodipodi:nodetypes="ccccccccc" />
            <path
               inkscape:connector-curvature="0"
               class="cls-1"
               d="m 814.06874,-701.79869 h -70.4625 c -2.15606,-0.005 -3.9052,1.74394 -3.9,3.9 v 5.52187 c -0.005,2.15606 1.74394,3.9052 3.9,3.9 h 70.44375 c 2.15606,0.005 3.9052,-1.74394 3.9,-3.9 v -5.49375 c 0.005,-2.15606 -1.74394,-3.9052 -3.9,-3.9 z"
               id="path15888-7-1"
               style="display:inline;fill:#a45d00;fill-opacity:1;stroke-width:0.9375"
               sodipodi:nodetypes="cccccccccc" />
          </g>
        </g>
      </g>
    </g>
  </g>
</svg>
