<?xml version="1.0" encoding="UTF-8" standalone="no"?>
<!-- Created with Inkscape (http://www.inkscape.org/) -->

<svg
   xmlns:dc="http://purl.org/dc/elements/1.1/"
   xmlns:cc="http://creativecommons.org/ns#"
   xmlns:rdf="http://www.w3.org/1999/02/22-rdf-syntax-ns#"
   xmlns:svg="http://www.w3.org/2000/svg"
   xmlns="http://www.w3.org/2000/svg"
   xmlns:sodipodi="http://sodipodi.sourceforge.net/DTD/sodipodi-0.dtd"
   xmlns:inkscape="http://www.inkscape.org/namespaces/inkscape"
   width="48"
   height="48"
   viewBox="0 0 45 45.000001"
   id="svg4958"
   version="1.1"
   inkscape:version="0.92.1 r15371"
   sodipodi:docname="uranium.svg"
   inkscape:export-filename="D:\0-0-Agata\graphik\pictogrammes\Pictos-fonctions\picto-loupe.png"
   inkscape:export-xdpi="300"
   inkscape:export-ydpi="300">
  <defs
     id="defs4960" />
  <sodipodi:namedview
     id="base"
     pagecolor="#ffffff"
     bordercolor="#666666"
     borderopacity="1.0"
     inkscape:pageopacity="0.0"
     inkscape:pageshadow="2"
     inkscape:zoom="7.9195959"
     inkscape:cx="38.409569"
     inkscape:cy="22.261615"
     inkscape:document-units="px"
     inkscape:current-layer="g21531"
     showgrid="true"
     units="px"
     inkscape:window-width="1366"
     inkscape:window-height="705"
     inkscape:window-x="-8"
     inkscape:window-y="-8"
     inkscape:window-maximized="1">
    <inkscape:grid
       type="xygrid"
       id="grid6185"
       originx="0"
       originy="0"
       spacingx="1"
       spacingy="1" />
  </sodipodi:namedview>
  <metadata
     id="metadata4963">
    <rdf:RDF>
      <cc:Work
         rdf:about="">
        <dc:format>image/svg+xml</dc:format>
        <dc:type
           rdf:resource="http://purl.org/dc/dcmitype/StillImage" />
        <dc:title></dc:title>
      </cc:Work>
    </rdf:RDF>
  </metadata>
  <g
     inkscape:label="Calque 1"
     inkscape:groupmode="layer"
     id="layer1"
     transform="translate(0,-1007.3622)">
    <rect
       style="opacity:1;fill:none;fill-opacity:1;stroke:none;stroke-width:1.95103896;stroke-linecap:round;stroke-linejoin:round;stroke-miterlimit:4;stroke-dasharray:none;stroke-dashoffset:0;stroke-opacity:1"
       id="rect5524-3"
       width="45"
       height="45"
       x="-47.501274"
       y="1008.649" />
    <path
       style="display:inline;fill:none;fill-rule:evenodd;stroke:none;stroke-width:0.60000008px;stroke-linecap:butt;stroke-linejoin:miter;stroke-opacity:1"
       d="M -20.20591,1022.9818 H 9.5578782 v 29.7638 H -20.20591 Z"
       id="path5102-0"
       inkscape:connector-curvature="0"
       inkscape:export-filename="D:\0-0-Opacite\graphik\pictogrammes\Déf\Sénat.png"
       inkscape:export-xdpi="300"
       inkscape:export-ydpi="300" />
    <g
       style="display:inline"
       id="g21531"
       transform="matrix(0.60000001,0,0,0.60000001,-693.46938,1500.3311)">
      <g
         id="g26311"
         transform="translate(-2.067939,-1.133741)">
        <rect
           inkscape:export-ydpi="300"
           inkscape:export-xdpi="300"
           inkscape:export-filename="D:\0-0-Agata\graphik\pictogrammes\Déf-1\visu.png"
           y="-820.48108"
           x="1157.8502"
           height="75"
           width="75"
           id="rect5524"
           style="opacity:1;fill:none;fill-opacity:1;stroke:none;stroke-width:3.25173163;stroke-linecap:round;stroke-linejoin:round;stroke-miterlimit:4;stroke-dasharray:none;stroke-dashoffset:0;stroke-opacity:1" />
        <rect
           inkscape:export-ydpi="300"
           inkscape:export-xdpi="300"
           inkscape:export-filename="D:\0-0-Agata\graphik\pictogrammes\Déf-1\visu.png"
           y="-820.48108"
           x="1157.8502"
           height="75"
           width="75"
           id="rect5524-31"
           style="opacity:1;fill:none;fill-opacity:1;stroke:none;stroke-width:3.25173163;stroke-linecap:round;stroke-linejoin:round;stroke-miterlimit:4;stroke-dasharray:none;stroke-dashoffset:0;stroke-opacity:1" />
        <g
           transform="matrix(0.95833334,0,0,0.95833334,415.14047,-260.77545)"
           id="g22568"
           style="display:inline">
          <circle
             style="display:inline;opacity:1;fill:#f0f0f0;fill-opacity:1;stroke:#d00080;stroke-width:3.26609707;stroke-linecap:round;stroke-miterlimit:4;stroke-dasharray:none;stroke-dashoffset:0;stroke-opacity:1"
             id="path5962-9-0-9-9-3-4-3-8-9-0-6-5-4-6-8"
             cx="814.13196"
             cy="-544.91022"
             r="35.866951" />
          <g
             id="g22562"
             transform="matrix(0.51587302,0,0,0.51587302,357.95096,-325.2343)">
            <circle
               r="56.25"
               cy="-425.83331"
               cx="884.28931"
               id="path5962-9-0-9-9-3-4-3-8-9-0-6-5-4-6-8-4"
               style="display:inline;opacity:1;fill:#ffd800;fill-opacity:1;stroke:none;stroke-width:5.12220669;stroke-linecap:round;stroke-miterlimit:4;stroke-dasharray:none;stroke-dashoffset:0;stroke-opacity:1" />
            <path
               id="path21973"
               d="m 917.47681,-474.67706 c -9.46875,-6.46875 -20.90625,-10.21875 -33.1875,-10.21875 -12.28125,0 -23.71875,3.75 -33.1875,10.21875 -15.65625,10.6875 -25.875,28.59375 -25.875,48.84375 0,20.25 10.21875,38.15625 25.875,48.84375 9.46875,6.46875 20.90625,10.21875 33.1875,10.21875 12.28125,0 23.71875,-3.75 33.1875,-10.21875 15.65625,-10.6875 25.875,-28.59375 25.875,-48.84375 0,-20.25 -10.21875,-38.15625 -25.875,-48.84375 z m -40.96875,37.21875 c 2.25,-1.5 4.875,-2.4375 7.78125,-2.4375 2.90625,0 5.53125,0.84375 7.78125,2.4375 3.65625,2.53125 6.09375,6.65625 6.09375,11.4375 v 0 c 0,4.78125 -2.4375,8.90625 -6.09375,11.4375 -2.25,1.5 -4.875,2.4375 -7.78125,2.4375 -2.90625,0 -5.53125,-0.84375 -7.78125,-2.4375 -3.65625,-2.53125 -6.09375,-6.65625 -6.09375,-11.4375 v 0 c 0.0937,-4.78125 2.4375,-9 6.09375,-11.4375 z m -41.625,11.4375 c 0,-16.96875 8.53125,-31.96875 21.5625,-40.875 l 15.65625,22.96875 v 0 c -5.34375,3.65625 -9,9.65625 -9.46875,16.5 -0.5625,0.5625 -0.9375,0.84375 -1.5,1.40625 z m 49.40625,49.40625 c -10.3125,0 -19.875,-3.1875 -27.75,-8.53125 l 15.5625,-22.96875 v 0 c 3.46875,2.34375 7.6875,3.75 12.1875,3.75 4.5,0 8.71875,-1.40625 12.1875,-3.75 l 15.65625,22.96875 c -7.96875,5.34375 -17.53125,8.53125 -27.84375,8.53125 z m 21.65625,-49.40625 c 0,0 0,0 0,0 0,-7.40625 -3.75,-13.96875 -9.46875,-17.90625 v 0 l 15.65625,-22.96875 c 13.03125,8.90625 21.5625,23.90625 21.5625,40.875 z"
               style="fill:#000000;stroke-width:0.9375"
               inkscape:connector-curvature="0" />
          </g>
        </g>
      </g>
    </g>
  </g>
</svg>
